…
    ## ── Column specification ───────────────────────────────────────────────────────────────────
    ## Delimiter: ","
    ## chr  (2): USDA_symbol, dataset
    ## dbl (13): ...1, leaf_size, SLA, LDMC, seed_mass, max_height, SRL, relative_spread, phen...

    ## 
    ## ℹ Use `spec()` to retrieve the full column specification for this data.
    ## ℹ Specify the column types or set `show_col_types = FALSE` to quiet this message.

    strts_all %>% 
      group_by(USDA_symbol) %>%
      summarize(n = n()) %>%
      arrange(-n)

    ## # A tibble: 57 × 2
    ##    USDA_symbol     n
    ##    <chr>       <int>
    ##  1 ANAR            2
    ##  2 BRMA3           2
    ##  3 CHGL            2
    ##  4 FEMI2           2
    ##  5 HOMU            2
    ##  6 MICA            2
    ##  7 MIDO            2
    ##  8 SIGA            2
    ##  9 ACMO2           1
    ## 10 AGHE2           1
    ## # … with 47 more rows
…
    ## Joining, by = "sp_code"

    # Add in the environmental data
    perf_env <- left_join(performance,
                          env %>%
                            # keep only the focal environmental variables, for now
                            dplyr::select(plot_num = plot, unscaled_ca_mg = ca_mg, 
                                          unscaled_sand = sand, unscaled_depth = depth))

    ## Joining, by = "plot_num"

    perf_env

    ## # A tibble: 1,399 × 13
    ##    plot_num plot_type replicate sp_code num_seeds_produced num_germinants expected_germina…
    ##       <dbl> <chr>         <dbl> <chr>                <dbl>          <dbl>             <dbl>
    ##  1      740 L                 1 AGHE                   768             29                60
    ##  2      740 L                 2 AGHE                  1206             35                60
    ##  3      740 L                 3 AGHE                  1425             26                60
    ##  4      740 L                 4 AGHE                  1864             33                60
    ##  5      740 L                 5 AGHE                  1425             21                60
    ##  6      740 L                 6 AGHE                   987             NA                NA
    ##  7      741 L                 1 AGHE                  1206             25                60
    ##  8      741 L                 2 AGHE                   987             19                60
    ##  9      741 L                 3 AGHE                   548             31                60
    ## 10      741 L                 4 AGHE                  1206             26                60
    ## # … with 1,389 more rows, and 6 more variables: num_germinants_corrected <dbl>,
    ## #   plot_env <chr>, USDA_symbol <chr>, unscaled_ca_mg <dbl>, unscaled_sand <dbl>,
    ## #   unscaled_depth <dbl>
…
```
## 
## ℹ Use `spec()` to retrieve the full column specification for this data.
## ℹ Specify the column types or set `show_col_types = FALSE` to quiet this message.
```

```r
strts %>% group_by(USDA_symbol) %>%
  summarize(n = n()) %>%
  arrange(-n)
```

```
## # A tibble: 57 × 2
##    USDA_symbol     n
##    <chr>       <int>
##  1 ANAR            2
##  2 BRMA3           2
##  3 CHGL            2
##  4 FEMI2           2
##  5 HOMU            2
##  6 MICA            2
##  7 MIDO            2
##  8 SIGA            2
##  9 ACMO2           1
## 10 AGHE2           1
## # … with 47 more rows
```
…
